{
  "variables": {
    "aws_access_key": "",
    "aws_secret_key": ""
  },
  "builders": [{
    "type": "docker",
    "image": "docker.edgebound.net/rhel7_devtools:0.1",
    "commit": true,
    "changes": [
      "VOLUME /opt/wcaas/bin /etc/ssl/private /srv/ftp /var/log/pure-ftpd",
      "EXPOSE 21/tcp 21000-21999/tcp"
    ]
  }],
  "provisioners": [{
    "type": "ansible-local",
    "playbook_file": "docker_pureftpd.yml",
    "extra_arguments": [],
    "inventory_groups": "all",
    "playbook_dir": ".",
    "staging_directory": "/tmp/packer_amx_pureftpd"
  }],
  "post-processors": [
    [{
      "type": "docker-tag",
      "repository": "docker.edgebound.net/rhel7_pureftpd",
      "tag": "1.0.47"
    },
    "docker-push"
    ]
  ]
}
