{
  "variables": {
    "aws_access_key": "",
    "aws_secret_key": ""
  },
  "builders": [{
    "type": "docker",
    "image": "docker.edgebound.net/rhel7:0.1",
    "commit": true,
    "changes": [
      "VOLUME /etc/letsencrypt /var/lib/letsencrypt /var/log/letsencrypt",
      "EXPOSE 80 443",
      "ENTRYPOINT [ \"/usr/local/bin/certbot-auto\", \"certonly\", \"--standalone\", \"--no-bootstrap\", \"--preferred-challenges\", \"tls-sni-01\", \"--non-interactive\", \"--agree-tos\", \"--email\", \"admindomain@telcel.com\", \"--domains\" ]",
      "CMD [ \"www.claro.com.gt\" ]"
    ]
  }],
  "provisioners": [{
    "type": "ansible-local",
    "playbook_file": "docker_letsencrypt.yml",
    "extra_arguments": [],
    "inventory_groups": "all",
    "playbook_dir": ".",
    "staging_directory": "/tmp/packer_amx_letsencrypt"
  }],
  "post-processors": [
    [{
      "type": "docker-tag",
      "repository": "docker.edgebound.net/rhel7_letsencrypt",
      "tag": "0.1"
    },
    "docker-push"
    ]
  ]
}
